%YAML 1.1
%TAG !u! tag:unity3d.com,2011:
--- !u!114 &11400000
MonoBehaviour:
  m_ObjectHideFlags: 0
  m_PrefabParentObject: {fileID: 0}
  m_PrefabInternal: {fileID: 0}
  m_GameObject: {fileID: 0}
  m_Enabled: 1
  m_EditorHideFlags: 0
  m_Script: {fileID: 11500000, guid: 1cf266c7b5f394a20b046ab56397f6e2, type: 3}
  m_Name: Default Pants
  m_EditorClassIdentifier: 
  name: Default Pants
  icon: {fileID: 0}
  isDefaultItem: 1
  equipSlot: 2
  mesh: {fileID: 137262594053072658, guid: 27887434d77114359be66d8c325597ce, type: 2}
  coveredMeshReagion: 00000000
  armorModifier: 0
  damageModifier: 0
