%YAML 1.1
%TAG !u! tag:unity3d.com,2011:
--- !u!114 &11400000
MonoBehaviour:
  m_ObjectHideFlags: 0
  m_PrefabParentObject: {fileID: 0}
  m_PrefabInternal: {fileID: 0}
  m_GameObject: {fileID: 0}
  m_Enabled: 1
  m_EditorHideFlags: 0
  m_Script: {fileID: 11500000, guid: 1cf266c7b5f394a20b046ab56397f6e2, type: 3}
  m_Name: Platelegs
  m_EditorClassIdentifier: 
  name: Platelegs
  icon: {fileID: 21300000, guid: 8cbc8047f9687485f9be6308ec45fbb7, type: 3}
  isDefaultItem: 0
  equipSlot: 2
  mesh: {fileID: 137149909629108078, guid: a80bbae1dd94748c3abe5d76f08e3482, type: 2}
  coveredMeshReagion: 00000000
  armorModifier: 0
  damageModifier: 3
